Chapter 16 Data Exploration | Economic Data Analysis
…
# Merge combinations with data
library("purrr")
data_combinations <- purrr::reduce(
    .x = 1:ncol(A_tuples),
    .f = function(x, i) inner_join(
        x = x,
        y = data_long %>% 
            rename_with(~ paste0(., ".X", i), c(starts_with("A"), "Value")),
        relationship = "many-to-many"),
    .init = A_tuples) %>% 
    arrange(B, across(starts_with("A.X")), C)
print(data_combinations)

## # A tibble: 80 × 8
##    A.X1  A.X2  A.X3  B     C     Value.X1 Value.X2 Value.X3
##    <ord> <ord> <ord> <ord> <ord>    <dbl>    <dbl>    <dbl>
##  1 a_1   a_2   a_3   b_1   c_1      0.996    0.450   2.38  
##  2 a_1   a_2   a_3   b_1   c_10    -0.470    0.656   0.408 
##  3 a_1   a_2   a_3   b_1   c_2      0.251    0.281   0.414 
##  4 a_1   a_2   a_3   b_1   c_3      1.27    -0.117   0.230 
##  5 a_1   a_2   a_3   b_1   c_4      0.447    0.267  -0.359 
##  6 a_1   a_2   a_3   b_1   c_5      1.16    -0.303  -1.88  
##  7 a_1   a_2   a_3   b_1   c_6     -1.09    -1.53    0.0211
##  8 a_1   a_2   a_3   b_1   c_7     -0.572    1.31    0.499 
##  9 a_1   a_2   a_3   b_1   c_8      1.61    -0.871   0.544 
## 10 a_1   a_2   a_3   b_1   c_9     -1.38    -0.352  -0.385 
## # ℹ 70 more rows
…
# Merge combinations with data
data_combinations <- purrr::reduce(
    .x = 1:ncol(A_tuples),
    .f = function(x, i) inner_join(
        x = x,
        y = data_long %>% 
            rename_with(~ paste0(., ".X", i), c(starts_with("A"), "Value")),
        relationship = "many-to-many"),
    .init = A_tuples) %>% 
    arrange(B, across(starts_with("A.X")), C)
print(data_combinations)

## # A tibble: 400 × 10
##    A.X1  A.X2  A.X3  A.X4  B     C     Value.X1 Value.X2 Value.X3 Value.X4
##    <ord> <ord> <ord> <ord> <ord> <ord>    <dbl>    <dbl>    <dbl>    <dbl>
##  1 a_1   a_2   a_3   a_4   b_1   c_1    -0.288    -0.768  -2.64     -0.542
##  2 a_1   a_2   a_3   a_4   b_1   c_10   -0.0602    0.833  -1.17      0.234
##  3 a_1   a_2   a_3   a_4   b_1   c_2     0.493    -0.137   0.0359    0.810
##  4 a_1   a_2   a_3   a_4   b_1   c_3    -1.04     -0.119   0.444     0.956
##  5 a_1   a_2   a_3   a_4   b_1   c_4    -1.09      1.22   -0.157     1.63 
##  6 a_1   a_2   a_3   a_4   b_1   c_5    -1.01      0.529   0.384     1.20 
##  7 a_1   a_2   a_3   a_4   b_1   c_6    -1.77     -0.115  -1.44      0.678
##  8 a_1   a_2   a_3   a_4   b_1   c_7     1.16     -0.756   1.25     -1.40 
##  9 a_1   a_2   a_3   a_4   b_1   c_8    -0.302     1.62   -0.214    -1.04 
## 10 a_1   a_2   a_3   a_4   b_1   c_9     0.841    -0.594   0.627     0.179
## # ℹ 390 more rows
…
## [1] "Value.X1 ~ Value.X2 + Value.X3 + Value.X4"

# Compute regressions
associative_stats <- data_combinations %>%
    group_by(B, across(starts_with("A"))) %>%
    summarize(fit = list(lm(as.formula(reg_formula))), .groups = "drop") %>%
    mutate(adj_r2 = map_dbl(fit, ~summary(.x)$adj.r.squared),
           coefs = map(fit, ~setNames(coef(.x), paste0("coef_", names(coef(.x))))),
           fit = NULL) %>%
    unnest_wider(coefs)
print(associative_stats)

## # A tibble: 40 × 10
##    B     A.X1  A.X2  A.X3  A.X4   adj_r2 `coef_(Intercept)` coef_Value.X2
##    <ord> <ord> <ord> <ord> <ord>   <dbl>              <dbl>         <dbl>
##  1 b_1   a_1   a_2   a_3   a_4    0.380             -0.0205       -0.297 
##  2 b_1   a_1   a_2   a_3   a_5    0.178              0.0407       -0.806 
##  3 b_1   a_1   a_2   a_4   a_5    0.348              0.0645       -0.676 
##  4 b_1   a_1   a_3   a_4   a_5    0.297             -0.0271        0.332 
##  5 b_1   a_2   a_1   a_3   a_4   -0.223              0.0921       -0.468 
##  6 b_1   a_2   a_1   a_3   a_5    0.448              0.218        -0.433 
##  7 b_1   a_2   a_1   a_4   a_5    0.439              0.218        -0.464 
##  8 b_1   a_2   a_3   a_4   a_5    0.184              0.269        -0.0182
##  9 b_1   a_3   a_1   a_2   a_4   -0.0677            -0.191         0.863 
## 10 b_1   a_3   a_1   a_2   a_5   -0.184             -0.233         0.672 
## # ℹ 30 more rows
## # ℹ 2 more variables: coef_Value.X3 <dbl>, coef_Value.X4 <dbl>
…
# Merge combinations with data
data_combinations <- purrr::reduce(
    .x = 1:ncol(A_tuples),
    .f = function(x, i) inner_join(
        x = x,
        y = data_long %>% 
            rename_with(~ paste0(., ".X", i), c(starts_with("A"), "Value")),
        relationship = "many-to-many"),
    .init = A_tuples) %>% 
    arrange(across(starts_with("B")), 
            across(starts_with("A.")), 
            across(starts_with("C")))
print(data_combinations)

## # A tibble: 96 × 16
##    A.X1        A.X2  A.X3  AC1.X1 AA2.X1 B1    B2    CC2   CC3   Value.X1 AC1.X2
##    <ord>       <ord> <ord> <ord>  <ord>  <ord> <ord> <ord> <ord>    <dbl> <ord> 
##  1 aa2_1|ac1_1 aa2_… aa2_… ac1_1  aa2_1  b1_1  b2_1  cc2_1 cc3_1  -1.38   ac1_2 
##  2 aa2_1|ac1_1 aa2_… aa2_… ac1_1  aa2_1  b1_1  b2_1  cc2_1 cc3_2  -0.897  ac1_2 
##  3 aa2_1|ac1_1 aa2_… aa2_… ac1_1  aa2_1  b1_1  b2_1  cc2_1 cc3_3   0.605  ac1_2 
##  4 aa2_1|ac1_1 aa2_… aa2_… ac1_1  aa2_1  b1_1  b2_1  cc2_2 cc3_1  -0.588  ac1_2 
##  5 aa2_1|ac1_1 aa2_… aa2_… ac1_1  aa2_1  b1_1  b2_1  cc2_2 cc3_2  -0.0520 ac1_2 
##  6 aa2_1|ac1_1 aa2_… aa2_… ac1_1  aa2_1  b1_1  b2_1  cc2_2 cc3_3   0.306  ac1_2 
##  7 aa2_1|ac1_1 aa2_… aa2_… ac1_1  aa2_1  b1_1  b2_1  cc2_1 cc3_1  -1.38   ac1_2 
##  8 aa2_1|ac1_1 aa2_… aa2_… ac1_1  aa2_1  b1_1  b2_1  cc2_1 cc3_2  -0.897  ac1_2 
##  9 aa2_1|ac1_1 aa2_… aa2_… ac1_1  aa2_1  b1_1  b2_1  cc2_1 cc3_3   0.605  ac1_2 
## 10 aa2_1|ac1_1 aa2_… aa2_… ac1_1  aa2_1  b1_1  b2_1  cc2_2 cc3_1  -0.588  ac1_2 
## # ℹ 86 more rows
## # ℹ 5 more variables: AA2.X2 <ord>, Value.X2 <dbl>, AC1.X3 <ord>, AA2.X3 <ord>,
## #   Value.X3 <dbl>
…
