Chapter 21 Insights From Consumer Surveys | Economic Data Analysis
…
# Import TSV file using the read_delim() function
cs <- read_delim(file = "files/sca-tableall-on-2023-Jul-01.tsv", skip = 1, 
                 col_names = TRUE, delim = "\t")

In the provided code snippets, the file input specifies the file path or URL of the TSV file to be imported. The skip input is used to specify the number of rows to skip at the beginning of the file. In this case, skip = 1 indicates that the first line of the TSV file, which contains the title “All Tables”, should be skipped. The col_names input is set to TRUE to indicate that the second line of the TSV file (after skipping 1 row) contains the column names. Lastly, the delim input is set to "\t" to specify that the columns in the TSV file are separated by tabs, which is the standard delimiter for TSV (Tab Separated Values) files.

Note that if the file is neither CSV nor TSV, but rather has an exotic format where columns are separated by a different character that is neither a comma nor a tab, such as “/”, you can use the read_delim() function with the delim = "/" argument to specify the custom delimiter.

To inspect the first few rows of the data, print the cs object in the console. For an overview of the entire dataset, execute View(cs).

# Display the data
cs

## # A tibble: 545 × 360
##    Month  yyyy ics_all ics_inc31 ics_inc32 ics_inc33 ics_a1834 ics_a3554
##    <dbl> <dbl>   <dbl>     <dbl>     <dbl>     <dbl>     <dbl>     <dbl>
##  1     1  1978    83.7        NA        NA        NA      93.7      86.7
##  2     2  1978    84.3        NA        NA        NA      99.7      82.3
##  3     3  1978    78.8        NA        NA        NA      91.7      76.8
##  4     4  1978    81.6        NA        NA        NA      91.8      79.7
##  5     5  1978    82.9        NA        NA        NA      95.1      78.9
##  6     6  1978    80          NA        NA        NA      91.7      75.7
##  7     7  1978    82.4        NA        NA        NA      92.2      78.4
##  8     8  1978    78.4        NA        NA        NA      87.8      77.2
##  9     9  1978    80.4        NA        NA        NA      86.6      83.9
## 10    10  1978    79.3        NA        NA        NA      90.6      76.7
## # ℹ 535 more rows
## # ℹ 352 more variables: ics_a5597 <dbl>, ics_ne <dbl>, ics_nc <dbl>,
## #   ics_s <dbl>, ics_w <dbl>, icc_all <dbl>, ice_all <dbl>, pago_f_all <dbl>,
## #   pago_s_all <dbl>, pago_u_all <dbl>, pago_dk_all <dbl>, pago_r_all <dbl>,
## #   pagorn_hy_all <dbl>, pagorn_ha_all <dbl>, pagorn_ld_all <dbl>,
## #   pagorn_ly_all <dbl>, pagorn_hp_all <dbl>, pagorn_la_all <dbl>,
## #   pagorn_hd_all <dbl>, pagorn_ny_all <dbl>, pagorn_nad_all <dbl>, …
…
