Chapter 16 Temporal Patterns | Economic Data Analysis
…
# Convert all yield columns to numeric data types
yc[, -1] <- sapply(yc[, -1], as.numeric)

# Convert to date format
yc$Date <- as.Date(yc$Date, format = "%m/%d/%y")

# Sort data according to date
yc <- yc[order(yc$Date), ]

# Print yc data
yc

## # A tibble: 8,382 × 14
##    Date       `1 Mo` `2 Mo` `3 Mo` `4 Mo` `6 Mo` `1 Yr` `2 Yr` `3 Yr` `5 Yr`
##    <date>      <dbl>  <dbl>  <dbl>  <dbl>  <dbl>  <dbl>  <dbl>  <dbl>  <dbl>
##  1 1990-01-02     NA     NA   7.83     NA   7.89   7.81   7.87   7.9    7.87
##  2 1990-01-03     NA     NA   7.89     NA   7.94   7.85   7.94   7.96   7.92
##  3 1990-01-04     NA     NA   7.84     NA   7.9    7.82   7.92   7.93   7.91
##  4 1990-01-05     NA     NA   7.79     NA   7.85   7.79   7.9    7.94   7.92
##  5 1990-01-08     NA     NA   7.79     NA   7.88   7.81   7.9    7.95   7.92
##  6 1990-01-09     NA     NA   7.8      NA   7.82   7.78   7.91   7.94   7.92
##  7 1990-01-10     NA     NA   7.75     NA   7.78   7.77   7.91   7.95   7.92
##  8 1990-01-11     NA     NA   7.8      NA   7.8    7.77   7.91   7.95   7.94
##  9 1990-01-12     NA     NA   7.74     NA   7.81   7.76   7.93   7.98   7.99
## 10 1990-01-16     NA     NA   7.89     NA   7.99   7.92   8.1    8.13   8.11
## # ℹ 8,372 more rows
## # ℹ 4 more variables: `7 Yr` <dbl>, `10 Yr` <dbl>, `20 Yr` <dbl>, `30 Yr` <dbl>
…
